Capacitaci贸n paquete calidad
…
# Soluci贸n ejercicio con rowwise

```r
casen2 <- casen %>%
  rowwise() %>% 
  mutate(max = max(y2803c, ytro, y0101c, y0701c, na.rm = T)) %>% 
  group_by(folio) %>% 
  mutate(maximo = max(max)) %>% 
  ungroup()

casen2 %>% select(folio, max, maximo, y2803c, ytro, y0101c, y0701c)
```

```
## # A tibble: 202,231 x 7
##        folio    max maximo y2803c  ytro y0101c y0701c
##        <dbl>  <dbl>  <dbl>  <dbl> <dbl>  <dbl>  <dbl>
##  1 100090101      0 411242      0     0      0      0
##  2 100090101      0 411242      0     0      0      0
##  3 100090101 411242 411242      0     0 411242      0
##  4 100090201      0      0      0     0      0      0
##  5 100090201      0      0      0     0      0      0
##  6 100090201      0      0      0     0      0      0
##  7 100090201      0      0      0     0      0      0
##  8 100090301      0      0      0     0      0      0
##  9 100090301      0      0      0     0      0      0
## 10 100090301      0      0      0     0      0      0
## # i 202,221 more rows
```
…
