Capacitaci贸n paquete calidad
…
```r
casen2 <- casen %>%
  rowwise() %>% 
  mutate(max = max(y2803c, ytro, y0101c, y0701c, na.rm = T)) %>% 
  group_by(folio) %>% 
  mutate(maximo = max(max)) %>% 
  ungroup()

casen2 %>% 
  select(folio, max, maximo, y2803c, ytro, y0101c, y0701c)
```

```
## # A tibble: 185,437 x 7
##         folio     max  maximo y2803c  ytro  y0101c y0701c
##         <dbl>   <dbl>   <dbl>  <dbl> <dbl>   <dbl>  <dbl>
##  1 1101100101  150000  150000      0     0       0 150000
##  2 1101100101       0  150000      0     0       0      0
##  3 1101100102       0  372000      0     0       0      0
##  4 1101100102  372000  372000      0     0  372000      0
##  5 1101100102       0  372000      0     0       0      0
##  6 1101100103 3000000 3000000      0     0 3000000      0
##  7 1101100103       0 3000000      0     0       0      0
##  8 1101100103       0 3000000      0     0       0      0
##  9 1101100104       0       0      0     0       0      0
## 10 1101100104       0       0      0     0       0      0
## # ... with 185,427 more rows
```
…
